<?xml version="1.0" encoding="utf-8"?>
<!-- Generator: Adobe Illustrator 21.1.0, SVG Export Plug-In . SVG Version: 6.00 Build 0)  -->
<svg version="1.1" id="Capa_1" xmlns="http://www.w3.org/2000/svg" xmlns:xlink="http://www.w3.org/1999/xlink" x="0px" y="0px"
	 viewBox="0 0 59.5 60" style="enable-background:new 0 0 59.5 60;" xml:space="preserve">
<g transform="translate(1 1)">
	<g>
		<g>
			<path d="M30.7,38.4h15.9c0.6,0,1-0.4,1-1v-8.9c0-0.6-0.4-1-1-1H30.7c-0.6,0-1,0.4-1,1v8.9C29.7,38,30.1,38.4,30.7,38.4z
				 M31.7,29.5h13.9v6.9H31.7V29.5z"/>
			<path d="M4,25.5h7.9c0.6,0,1-0.4,1-1s-0.4-1-1-1H4c-0.6,0-1,0.4-1,1S3.4,25.5,4,25.5z"/>
			<path d="M15.9,25.5h7.9c0.6,0,1-0.4,1-1s-0.4-1-1-1h-7.9c-0.6,0-1,0.4-1,1S15.3,25.5,15.9,25.5z"/>
			<path d="M4,29.5h12.9c0.6,0,1-0.4,1-1s-0.4-1-1-1H4c-0.6,0-1,0.4-1,1S3.4,29.5,4,29.5z"/>
			<path d="M23.8,27.5h-3c-0.6,0-1,0.4-1,1c0,0.6,0.4,1,1,1h3c0.6,0,1-0.4,1-1C24.8,27.9,24.4,27.5,23.8,27.5z"/>
			<path d="M57.6,15.2c-0.7-0.9-1.6-1.4-2.7-1.5l-2.4-0.3v-2.8v-2c0-2.2-1.8-4-4-4H3c-2.2,0-4,1.8-4,4v2v7.9v21.8
				c0,1.8,1.2,3.3,2.8,3.8c0,2,1.5,3.7,3.5,3.9l45.8,5.2c0.1,0,0.3,0,0.4,0c2,0,3.8-1.5,4-3.4l3-31.8C58.6,17.1,58.3,16,57.6,15.2z
				 M1,11.6h49.6v2.6v3.4H1V11.6z M3,6.7h45.6c1.1,0,2,0.9,2,2v1H1v-1C1,7.6,1.9,6.7,3,6.7z M1,40.4V19.6h49.6v20.8c0,1.1-0.9,2-2,2
				H3.1H3C1.9,42.4,1,41.5,1,40.4z M56.5,17.7l-3,31.8c-0.1,1.1-1.1,1.9-2.2,1.8L5.6,46.2c-1-0.1-1.7-0.9-1.8-1.8h44.7
				c2.2,0,4-1.8,4-4V18.6v-3.3l2.3,0.2c0.5,0,1,0.3,1.3,0.7C56.4,16.6,56.6,17.2,56.5,17.7z"/>
		</g>
	</g>
</g>
</svg>
